﻿{
  "PrimeCol": 2,
  "CheckCol": 7,
  "AdditionalInfoCol": 59,
  "Emode": 1,
  "ClientNumberCell": "C2",
  "MainShtName": "Surface",
  "PageIds": [ "BCOFSLD" ],
  "Headers": {
    "ShipmentDate": 7,
    "Weight1": 21,
    "Weight2": 23,
    "BoxAmount": 25,
    "RecipentName": 29,
    "CompanyName": 31,
    "RecipentAddress": 32,
    "RecipentCity": 33,
    "RecipentCoName": 34,
    "RecipentPostal": 35,
    "RecipentCoCode": 36,
    "ShipperCompanyName": 37,
    "ShipperAddress": 40,
    "ShipperCity": 41,
    "ShipperCoName": 42,
    "ShipperPostal": 43,
    "ShipperCoCode": 44,
    "FlowIdentifier": 59,
    "PackID": 56,
    "BU": 20,
    "CarrierAccountNumber": 19,
    "ServiceLevel": 45
  },
  "CsePrefix": [ "E8", "N8", "CC", "CB" ],
  "HPName": "HP Europe BV"
}